{
  "page": 1,
  "total_results": 19752,
  "total_pages": 988,
  "results": [
    {
      "vote_count": 6638,
      "id": 198663,
      "video": false,
      "vote_average": 7,
      "title": "Maze Runner: Correr ou Morrer",
      "popularity": 435.990884,
      "poster_path": "/3o6IwZbd1rZy8a6kPzAWYXKDHIL.jpg",
      "original_language": "en",
      "original_title": "The Maze Runner",
      "genre_ids": [
        28,
        9648,
        878,
        53
      ],
      "backdrop_path": "/lkOZcsXcOLZYeJ2YxJd3vSldvU4.jpg",
      "adult": false,
      "overview": "Num cenário pós-apocalíptico, uma comunidade de rapazes descobre que estão presos num labirinto misterioso. Juntos, terão de descobrir como escapar, resolver o enigma e revelar o arrepiante segredo acerca de quem os colocou ali e por que razão.",
      "release_date": "2014-09-10"
    },
    {
      "vote_count": 3042,
      "id": 335984,
      "video": false,
      "vote_average": 7.4,
      "title": "Blade Runner 2049",
      "popularity": 375.70732,
      "poster_path": "/zppVzoeQvds6FPTzcMww6chPIks.jpg",
      "original_language": "en",
      "original_title": "Blade Runner 2049",
      "genre_ids": [
        9648,
        878,
        53
      ],
      "backdrop_path": "/mVr0UiqyltcfqxbAUcLl9zWL8ah.jpg",
      "adult": false,
      "overview": "California, 2049. Após os problemas enfrentados com os Nexus 8, uma nova espécie de replicantes é desenvolvida, de forma que seja mais obediente aos humanos. Um deles é K (Ryan Gosling), um blade runner que caça replicantes foragidos para a polícia de Los Angeles. Após encontrar Sapper Morton (Dave Bautista), K descobre um fascinante segredo: A replicante Rachel (Sean Young) teve um filho, mantido em sigilo até então. A possibilidade de que replicantes se reproduzam pode desencadear uma guerra deles com os humanos, o que faz com que a tenente Joshi (Robin Wright), chefe de K, o envie para encontrar e eliminar a criança.",
      "release_date": "2017-10-04"
    },
    {
      "vote_count": 1916,
      "id": 354912,
      "video": false,
      "vote_average": 7.7,
      "title": "Viva - A Vida é uma Festa",
      "popularity": 373.720653,
      "poster_path": "/6oNm06TPz2vGiPc2I52oXW3JwPS.jpg",
      "original_language": "en",
      "original_title": "Coco",
      "genre_ids": [
        16,
        12,
        35
      ],
      "backdrop_path": "/askg3SMvhqEl4OL52YuvdtY40Yb.jpg",
      "adult": false,
      "overview": "Miguel é um menino de 12 anos que quer em ser um músico famoso, mas deve lidar sua família desaprova seu sonho. Determinado a virar o jogo, o jovem  acaba desencadeando uma série de eventos ligados a um mistério de 100 anos. A aventura, com inspiração no feriado mexicano do Dia dos Mortos, acaba gerando uma extraordinária reunião familiar.",
      "release_date": "2017-10-27"
    },
    {
      "vote_count": 6334,
      "id": 346364,
      "video": false,
      "vote_average": 7.1,
      "title": "It: A Coisa",
      "popularity": 372.536196,
      "poster_path": "/uYxz0lIiNgErrPhQbSjUdwYxtFc.jpg",
      "original_language": "en",
      "original_title": "It",
      "genre_ids": [
        18,
        27,
        53
      ],
      "backdrop_path": "/tcheoA2nPATCm2vvXw2hVQoaEFD.jpg",
      "adult": false,
      "overview": "Um grupo de sete adolescentes de Derry, uma cidade no Maine, formam o auto-intitulado \"Losers Club\", o clube dos perdedores. A pacata rotina da cidade é abalada quando crianças começam a desaparecer e tudo o que pode ser encontrado delas são partes de seus corpos. Logo, os integrantes do \"Losers Club\" acabam ficando face a face com o responsável pelos crimes: o palhaço Pennywise.",
      "release_date": "2017-09-05"
    },
    {
      "vote_count": 3454,
      "id": 8844,
      "video": false,
      "vote_average": 7,
      "title": "Jumanji",
      "popularity": 328.104005,
      "poster_path": "/8wBKXZNod4frLZjAKSDuAcQ2dEU.jpg",
      "original_language": "en",
      "original_title": "Jumanji",
      "genre_ids": [
        12,
        14,
        10751
      ],
      "backdrop_path": "/7k4zEgUZbzMHawDaMc9yIkmY1qR.jpg",
      "adult": false,
      "overview": "Em 1869, dois garotos apavorados enterram um baú e, cem anos depois, o filho de um empresário descobre que dentro dele há um jogo chamado Jumanji. Quando começa a jogar com uma amiga, ele logo é penalizado a ficar na floresta até que alguém tire cinco ou oito. Como na jogada seguinte ela é atacada por morcegos, em virtude de seu posicionamento no tabuleiro, o jogo é interrompido e ele imediatamente fica preso dentro de Jumanji. Mas, vinte e seis anos depois, duas crianças começam a jogar e uma acaba libertando-o. Porém, a única forma de deixar tudo como antes é terminar a partida, mas para isto é preciso achar a participante da partida de 1969. Juntos eles enfrentam perigos, que surgem a cada jogada, e enquanto o jogo se desenrola a cidade se transforma em um caos, pois animais selvagens, plantas assassinas e até um caçador de pessoas saem do tabuleiro e vão permanecer enquanto o jogo não findar.",
      "release_date": "1995-12-15"
    },
    {
      "vote_count": 243,
      "id": 347882,
      "video": false,
      "vote_average": 5.2,
      "title": "Sleight",
      "popularity": 313.194105,
      "poster_path": "/wridRvGxDqGldhzAIh3IcZhHT5F.jpg",
      "original_language": "en",
      "original_title": "Sleight",
      "genre_ids": [
        18,
        53,
        28,
        878
      ],
      "backdrop_path": "/2SEgJ0mHJ7TSdVDbkGU061tR33K.jpg",
      "adult": false,
      "overview": "Um mágico de rua precisa cuidar da irmã após a morte dos pais e acaba se envolvendo com atividade ilícitas para sustentá-la. Quando o chefão da gangue ameaça o garoto, ele precisa usar suas habilidades para salvar aqueles que ama.",
      "release_date": "2017-04-28"
    },
    {
      "vote_count": 3694,
      "id": 284053,
      "video": false,
      "vote_average": 7.5,
      "title": "Thor: Ragnarok",
      "popularity": 275.821051,
      "poster_path": "/oSLd5GYGsiGgzDPKTwQh7wamO8t.jpg",
      "original_language": "en",
      "original_title": "Thor: Ragnarok",
      "genre_ids": [
        878,
        28,
        12,
        35
      ],
      "backdrop_path": "/kaIfm5ryEOwYg8mLbq8HkPuM1Fo.jpg",
      "adult": false,
      "overview": "Thor está aprisionado do outro lado do universo, sem seu martelo, e se vê em uma corrida para voltar até Asgard e impedir o Ragnarok – a destruição de seu lar e o fim da civilização asgardiana – que está nas mãos de uma nova e poderosa ameaça, a terrível Hela. Mas primeiro ele precisa sobreviver a uma batalha de gladiadores que o coloca contra seu ex-aliado e vingador – o Incrível Hulk.",
      "release_date": "2017-10-25"
    },
    {
      "vote_count": 3167,
      "id": 281338,
      "video": false,
      "vote_average": 6.8,
      "title": "Planeta dos Macacos: A Guerra",
      "popularity": 256.86709,
      "poster_path": "/kG4ZxEBVw4eS23QSXG0PaUaDoEx.jpg",
      "original_language": "en",
      "original_title": "War for the Planet of the Apes",
      "genre_ids": [
        18,
        878,
        10752
      ],
      "backdrop_path": "/ulMscezy9YX0bhknvJbZoUgQxO5.jpg",
      "adult": false,
      "overview": "Humanos e macacos cruzam os caminhos novamente. César e seu grupo são forçados a entrar em uma guerra contra um exército de soldados liderados por um impiedoso coronel. Depois que vários macacos perdem suas vidas no conflito, César luta contra seus instintos e parte em busca de vingança. Dessa jornada, o futuro do planeta poderá estar em jogo.",
      "release_date": "2017-07-11"
    },
    {
      "vote_count": 352,
      "id": 460793,
      "video": false,
      "vote_average": 5.9,
      "title": "Olaf: Em Uma Nova Aventura Congelante de Frozen",
      "popularity": 255.47965,
      "poster_path": "/cjiJUyLpLuyQZO3sbIlTsvQioEj.jpg",
      "original_language": "en",
      "original_title": "Olaf's Frozen Adventure",
      "genre_ids": [
        12,
        16,
        35,
        10751,
        14,
        10402
      ],
      "backdrop_path": "/9K4QqQZg4TVXcxBGDiVY4Aey3Rn.jpg",
      "adult": false,
      "overview": "É a primeira temporada de festas de fim de ano desde a reabertura dos portões e Anna (Kristen Bell) e Elsa (Idina Menzel) organizam uma festa para toda a Arendelle. Porém, quando as pessoas da cidade saem cedo da comemoração para desfrutar seus costumes prórprios, as irmãs percebem que não possuem tradições familiares. No entanto, Olaf quer tentar mudar essa situação e trazer um Natal feliz para as meninas. Ele decide viajar pelo reino para trazer para o castelo as melhores tradições locais.",
      "release_date": "2017-10-27"
    },
    {
      "vote_count": 5632,
      "id": 211672,
      "video": false,
      "vote_average": 6.4,
      "title": "Minions",
      "popularity": 211.499685,
      "poster_path": "/4gX0M4RifoqXBz9LejqQ6wYPqYo.jpg",
      "original_language": "en",
      "original_title": "Minions",
      "genre_ids": [
        10751,
        16,
        12,
        35
      ],
      "backdrop_path": "/qLmdjn2fv0FV2Mh4NBzMArdA0Uu.jpg",
      "adult": false,
      "overview": "Seres amarelos milenares, os minions têm uma missão: servir os maiores vilões. Em depressão desde a morte de seu antigo mestre, eles tentam encontrar um novo chefe. Três voluntários, Kevin, Stuart e Bob, vão até uma convenção de vilões nos Estados Unidos e lá se encantam com Scarlet Overkill (Sandra Bullock), que ambiciona ser a primeira mulher a dominar o mundo.",
      "release_date": "2015-06-17"
    },
    {
      "vote_count": 3822,
      "id": 339403,
      "video": false,
      "vote_average": 7.3,
      "title": "Em Ritmo De Fuga",
      "popularity": 208.126298,
      "poster_path": "/1rYTtQ14rPB3KOgk5TjkUqiQFch.jpg",
      "original_language": "en",
      "original_title": "Baby Driver",
      "genre_ids": [
        28,
        80
      ],
      "backdrop_path": "/goCvLSUFz0p7k8R10Hv4CVh3EQv.jpg",
      "adult": false,
      "overview": "O jovem Baby (Ansel Elgort) tem uma mania curiosa: precisa ouvir músicas o tempo todo para silenciar o zumbido que perturba seus ouvidos desde um acidente na infância. Excelente motorista, ele é o piloto de fuga oficial dos assaltos de Doc (Kevin Spacey), mas não vê a hora de deixar o cargo, principalmente depois que se vê apaixonado pela garçonete Debora (Lily James).",
      "release_date": "2017-06-28"
    },
    {
      "vote_count": 8462,
      "id": 209112,
      "video": false,
      "vote_average": 5.7,
      "title": "Batman vs Superman: A Origem da Justiça",
      "popularity": 186.4518,
      "poster_path": "/9ORTc9UUTtRq7pssuu5OXNG3W5m.jpg",
      "original_language": "en",
      "original_title": "Batman v Superman: Dawn of Justice",
      "genre_ids": [
        28,
        12,
        14
      ],
      "backdrop_path": "/vsjBeMPZtyB7yNsYY56XYxifaQZ.jpg",
      "adult": false,
      "overview": "Após sua luta contra o general Zod, Metrópolis foi arrasada e o Superman se tornou a figura mais controversa do mundo. Enquanto para muitos ele continua sendo um símbolo de esperança, um número cada vez maior de pessoas o consideram uma ameaça para a humanidade, procurando justiça para o caos que ele trouxe para a Terra. Até onde Bruce Wayne sabe, Superman é claramente perigoso para a sociedade. Ele teme pelo futuro da humanidade com um poder tão grande sem ser governado, então ele veste sua máscara e capa para corrigir os erros do Superman. A rivalidade entre eles é furiosa, alimentada por amargura e vingança e nada pode convencê-los a não travar essa guerra. No entanto, uma ameaça obscura surge na forma de um terceiro homem: um que tem poder maior do que qualquer um deles para colocar o mundo em perigo e causar destruição total.",
      "release_date": "2016-03-23"
    },
    {
      "vote_count": 3995,
      "id": 166426,
      "video": false,
      "vote_average": 6.5,
      "title": "Piratas do Caribe: A Vingança de Salazar",
      "popularity": 177.161496,
      "poster_path": "/q8zYVAvuPI3ImOkC1EsjDs7ilTk.jpg",
      "original_language": "en",
      "original_title": "Pirates of the Caribbean: Dead Men Tell No Tales",
      "genre_ids": [
        12,
        28,
        14,
        35
      ],
      "backdrop_path": "/7C921eWK06n12c1miRXnYoEu5Yv.jpg",
      "adult": false,
      "overview": "O Capitão Jack, que anda passando por uma onda de azar, sente os ventos da má sorte soprando com muita força quando os marinheiros fantasmas assassinos, liderados pelo aterrorizante Capitão Salazar (Javier Bardem), escapam do triângulo do diabo decididos a matar todos os piratas em seu caminho, especialmente Jack.",
      "release_date": "2017-05-23"
    },
    {
      "vote_count": 2056,
      "id": 339964,
      "video": false,
      "vote_average": 6.6,
      "title": "Valerian e a Cidade dos Mil Planetas",
      "popularity": 175.858459,
      "poster_path": "/x69DC2NnchOhNykhbkjgpuqC2SD.jpg",
      "original_language": "en",
      "original_title": "Valerian and the City of a Thousand Planets",
      "genre_ids": [
        12,
        878,
        28
      ],
      "backdrop_path": "/7WjMTRF6LDa4latRUIDM25xnDO0.jpg",
      "adult": false,
      "overview": "Século XXVIII. Valérian é um agente viajante do tempo e do espaço que luta ao lado da parceira Laureline, por quem é apaixonado, em defesa da Terra e seus planetas aliados, continuamente atacados por bandidos intergaláticos. Quando chegam no planeta Alpha, eles precisarão acabar com uma operação comandada por grandes forças que deseja destruir os sonhos e as vidas dos dezessete milhões de habitantes do planeta.",
      "release_date": "2017-07-20"
    },
    {
      "vote_count": 6673,
      "id": 245891,
      "video": false,
      "vote_average": 7,
      "title": "John Wick: De Volta ao Jogo",
      "popularity": 171.559878,
      "poster_path": "/rboZslo3eQWKBQ3QvlO6wGV0J3K.jpg",
      "original_language": "en",
      "original_title": "John Wick",
      "genre_ids": [
        28,
        53
      ],
      "backdrop_path": "/umC04Cozevu8nn3JTDJ1pc7PVTn.jpg",
      "adult": false,
      "overview": "John Wick (Keanu Reeves) já foi um dos assassinos mais temidos da cidade de Nova York, trabalhando em parceria com a máfia russa. Um dia, ele decide se aposentar, e neste período tem que lidar com a triste morte de sua esposa. Vítima de uma doença grave, ela já previa a sua própria morte, e deu de presente ao marido um cachorro para cuidar em seu período de luto. No entanto, poucos dias após o funeral, o cachorro é morto por ladrões que roubam o seu carro. John Wick parte em busca de vingança contra estes homens que ele já conhecia muito bem, e que roubaram o último símbolo da mulher que ele amava.",
      "release_date": "2014-10-22"
    },
    {
      "vote_count": 883,
      "id": 274855,
      "video": false,
      "vote_average": 5.7,
      "title": "Tempestade: Planeta em Fúria",
      "popularity": 159.899247,
      "poster_path": "/uGNyIpD9bTFVvXMaMOxo7RwNUSN.jpg",
      "original_language": "en",
      "original_title": "Geostorm",
      "genre_ids": [
        28,
        878,
        53
      ],
      "backdrop_path": "/6jrMdMe4sMygTcJPpQTjKPmP4l0.jpg",
      "adult": false,
      "overview": "A ocorrência cada vez mais frequente de eventos climáticos capazes de ameaçar a existência da humanidade faz com que seja criada uma extensa rede de satélites, ao redor de todo o planeta, de forma a controlar o próprio clima. Apelidado de \"Dutch Boy\", este sistema construído a partir da cooperação de 17 países é coordenado pelo engenheiro Jake Lawson (Gerard Butler). Após anos de dedicação, ele é afastado da função devido a questões políticas e, em seu lugar, é nomeado seu irmão caçula, Max (Jim Sturgess). Três anos depois, quando a coordenação do \"Dutch Boy\" está prestes a ser transferida dos Estados Unidos para a ONU, falhas pontuais provocam uma forte nevasca em pleno deserto no Afeganistão e altíssimas temperaturas em Hong Kong, que matam centenas de pessoas. Jake é então convocado para descobrir o que está acontecendo e, enviado para a estação internacional, desvenda uma imensa conspiração ao mesmo tempo em que precisa deixar para trás os atritos existentes com Max.",
      "release_date": "2017-10-13"
    },
    {
      "vote_count": 7151,
      "id": 321612,
      "video": false,
      "vote_average": 6.8,
      "title": "A Bela e a Fera",
      "popularity": 156.774587,
      "poster_path": "/9V4wl4rnUcLfGuTe4J5NjOFbDil.jpg",
      "original_language": "en",
      "original_title": "Beauty and the Beast",
      "genre_ids": [
        10751,
        14,
        10749
      ],
      "backdrop_path": "/6aUWe0GSl69wMTSWWexsorMIvwU.jpg",
      "adult": false,
      "overview": "Moradora de uma pequena aldeia francesa, Bela (Emma Watson) tem o pai capturado pela Fera e decide entregar sua vida ao estranho ser em troca da liberdade do progenitor. No castelo ela conhece objetos mágicos e descobre que a Fera é na verdade um príncipe que precisa de amor para voltar à forma humana.",
      "release_date": "2017-03-16"
    },
    {
      "vote_count": 6814,
      "id": 131631,
      "video": false,
      "vote_average": 6.7,
      "title": "Jogos Vorazes: A Esperança - Parte 1",
      "popularity": 148.551513,
      "poster_path": "/4SZVC5HHB9YHHiqKFL4L14qXpq6.jpg",
      "original_language": "en",
      "original_title": "The Hunger Games: Mockingjay - Part 1",
      "genre_ids": [
        878,
        12,
        53
      ],
      "backdrop_path": "/4PwyB0ErucIANzW24Kori71J6gU.jpg",
      "adult": false,
      "overview": "Após ser resgatada do Massacre Quaternário pela resistência ao governo tirânico do presidente Snow (Donald Sutherland), Katniss Everdeen (Jennifer Lawrence) está abalada. Temerosa e sem confiança, ela agora vive no Distrito 13 ao lado da mãe (Paula Malcomson) e da irmã, Prim (Willow Shields). A presidente Alma Coin (Julianne Moore) e Plutarch Heavensbee (Philip Seymour Hoffman) querem que Katniss assuma o papel do tordo, o símbolo que a resistência precisa para mobilizar a população. Após uma certa relutância, Katniss aceita a proposta desde que a resistência se comprometa a resgatar Peeta Mellark (Josh Hutcherson) e os demais Vitoriosos, mantidos prisioneiros pela Capital.",
      "release_date": "2014-11-18"
    },
    {
      "vote_count": 3666,
      "id": 181808,
      "video": false,
      "vote_average": 7.2,
      "title": "Star Wars: Os Últimos Jedi",
      "popularity": 144.320581,
      "poster_path": "/2iGN0aKHJYD0xQydlfuCUAcgNbO.jpg",
      "original_language": "en",
      "original_title": "Star Wars: The Last Jedi",
      "genre_ids": [
        28,
        12,
        14,
        878
      ],
      "backdrop_path": "/5Iw7zQTHVRBOYpA0V6z0yypOPZh.jpg",
      "adult": false,
      "overview": "Após encontrar o mítico e recluso Luke Skywalker em uma ilha isolada, a jovem Rey busca entender o balanço da Força a partir dos ensinamentos do mestre jedi. Paralelamente, o Primeiro Império de Kylo Ren se reorganiza para enfrentar a Aliança Rebelde.",
      "release_date": "2017-12-13"
    },
    {
      "vote_count": 3511,
      "id": 324552,
      "video": false,
      "vote_average": 6.8,
      "title": "John Wick: Um Novo Dia Para Matar",
      "popularity": 137.808961,
      "poster_path": "/k36UzsRQaY6E055cdYPdYbyREer.jpg",
      "original_language": "en",
      "original_title": "John Wick: Chapter 2",
      "genre_ids": [
        53,
        28,
        80
      ],
      "backdrop_path": "/dQ6s3Ud2KoOs3LKw6xgZr1cw7Yq.jpg",
      "adult": false,
      "overview": "Após recuperar seu carro, John Wick (Keanu Reeves) acredita que enfim poderá se aposentar. Entretanto, a reaparição de Santino D'Antonio (Riccardo Scarmacio) atrapalha seus planos. Dono de uma promissória em nome de Wick, por ele usada para deixar o posto de assassino profissional da Alta Cúpula, Santino cobra a dívida existente e insiste para que ele mate sua própria irmã, Gianna (Claudia Gerini).",
      "release_date": "2017-02-08"
    }
  ]
}